20201019133124,10.20.30.1/16,2
20201019133125,10.20.30.2/16,1
20201019133134,192.168.1.1/24,10
20201019133135,192.168.1.2/24,5
20201019133226,10.20.30.1/16,522
20201019133228,10.20.30.3/16,1
20201019133233,192.168.1.3/24,8
20201019133235,192.168.1.4/24,15
20201019133320,10.20.30.4/16,-
20201019133322,10.20.30.5/16,-
20201019133323,10.20.31.6/16,-
20201019133325,192.153.1.1/24,10
20201019133326,10.20.31.7/16,-
20201019133330,10.20.30.7/16,-
20201019133335,192.153.1.2/24,400
20201019133336,10.20.30.8/16,-
20201019133357,10.20.30.9/16,-
20201019133359,192.143.1.1/20,1
20201019133410,10.20.31.3/16,-
20201019133411,10.20.31.4/16,-
20201019133415,10.20.31.3/17,-
20201019133420,192.143.1.2/20,3
20201019133425,10.20.31.5/16,-
20201019133430,10.20.35.1/12,1